Data Analysis Assessment – Anissa Waller Del Valle: Data Analysis Portfolio
…
51 rows containing missing values or values outside of the scale range were removed.

I have plotted life expectancy as a function of population size. I saw a positive correlation between population size and life expectancy.

In both plots, there are ‘streaks’ of data. I believe that this due to the fact that I am looking at data for each individual country in africa over several decades (1960 - 2016).

As mentioned previously, 226 rows containing missing values or values outside of the scale range were removed from the first plot looking at life expectancy as a function of infant mortality. I will now figure out which years have missing data for infant mortality.

# determine the number of countries that are missing data on infant mortality per year          
africadata %>%
     group_by(year) %>%
     summarise(missing_infant = sum(is.na(infant_mortality))) %>%
     arrange(year)

# A tibble: 57 × 2
    year missing_infant
   <int>          <int>
 1  1960             10
 2  1961             17
 3  1962             16
 4  1963             16
 5  1964             15
 6  1965             14
 7  1966             13
 8  1967             11
 9  1968             11
10  1969              7
# ℹ 47 more rows
…
